{
  "project_info": {
    "project_number": "915978994003",
    "firebase_url": "https://music-details-changer.firebaseio.com",
    "project_id": "music-details-changer",
    "storage_bucket": "music-details-changer.appspot.com"
  },
  "client": [
    {
      "client_info": {
        "mobilesdk_app_id": "1:915978994003:android:28a434b2ad235c27d961a6",
        "android_client_info": {
          "package_name": "com.music.detail.changer"
        }
      },
      "oauth_client": [
        {
          "client_id": "915978994003-m7vmlrqdk219v9emeq1vdgm6dl2hvtt9.apps.googleusercontent.com",
          "client_type": 1,
          "android_info": {
            "package_name": "com.music.detail.changer",
            "certificate_hash": "4bf2f54577dd4365400ebfd0150e217b09b1410b"
          }
        },
        {
          "client_id": "915978994003-ne6q01ng6v83dve77nc1nb7vojj2t0h1.apps.googleusercontent.com",
          "client_type": 3
        }
      ],
      "api_key": [
        {
          "current_key": "AIzaSyBWVWOCpLrfmzAWh-yyBtvv_JVUoXna8RQ"
        }
      ],
      "services": {
        "appinvite_service": {
          "other_platform_oauth_client": [
            {
              "client_id": "915978994003-ne6q01ng6v83dve77nc1nb7vojj2t0h1.apps.googleusercontent.com",
              "client_type": 3
            }
          ]
        }
      }
    }
  ],
  "configuration_version": "1"
}